
[
  {
    "ParameterKey": "1OSPeggedAMIID",
    "ParameterValue": "AlwaysUseLatest"
  },
  {
    "ParameterKey": "1OSInstanceOSPlatform",
    "ParameterValue": "Linux"
  },
  {
    "ParameterKey": "1OSInstanceLinuxArch",
    "ParameterValue": "arm64"
  },
  {
    "ParameterKey": "1OSPatchScope",
    "ParameterValue": "NoPatching"
  },
  {
    "ParameterKey": "9AWSRetrieveLatestAWSOSAmiIdFromSSM",
    "ParameterValue": "/aws/service/ami-amazon-linux-latest/amzn2-ami-hvm-arm64-gp2"
  }, 
  {
    "ParameterKey": "3INSTConfigurationScript",
    "ParameterValue": "https://gitlab.com/guided-explorations/aws/gitlab-runner-autoscaling-aws-asg/-/raw/v1.4.8-alpha13/runner_configs/amazon-linux-2-docker.sh"
  },
  {
    "ParameterKey": "4ASGDesiredCapacity",
    "ParameterValue": "2"
  },
  {
    "ParameterKey": "5ASGAutoScalingEnabled",
    "ParameterValue": "false"
  }, 
  {
    "ParameterKey": "5SPOTOnDemandPercentageAboveBaseCapacity",
    "ParameterValue": "100"
  },
  {
    "ParameterKey": "3GITLABRunnerTagList",
    "ParameterValue": ""
  },
  {
    "ParameterKey": "5ASGInstanceType1",
    "ParameterValue": "a1.large"
  },
  {
    "ParameterKey": "5ASGInstanceType2",
    "ParameterValue": ""
  },
  {
    "ParameterKey": "5ASGInstanceType3",
    "ParameterValue": ""
  },
  {
    "ParameterKey": "5ASGInstanceType4",
    "ParameterValue": ""
  },
  {
    "ParameterKey": "8DBGKeypairName",
    "ParameterValue": ""
  }  
]